{
    "responseMessage": [
        {
            "licId": "LIC2023020900001",
            "serial": "2PIQD-5TZ37-4DEW4-AUTLS-HN297",
            "name": "Compliance & Telemetry",
            "description": null,
            "maxSeat": 5,
            "detail": null,
            "createDate": "2023-02-09T06:33:23.413Z",
            "updateDate": "2023-02-10T14:03:06.680Z",
            "expDate": "2023-12-31T16:59:59.000Z",
            "createBy": "Dev",
            "updateBy": null,
            "ownerId": "AGG2023020900001",
            "status": 2,
            "seats": [
                {
                    "seatId": "SET2023032000007",
                    "name": null,
                    "description": null,
                    "createDate": "2023-03-20T07:26:24.994Z",
                    "updateDate": "2023-03-31T03:51:29.086Z",
                    "createBy": null,
                    "updateBy": null,
                    "assigneeId": "30da41c2-1a88-28a3-75c0-8586d036c978",
                    "status": 0,
                    "licId": "LIC2023020900001"
                },
                {
                    "seatId": "SET2023033100001",
                    "name": null,
                    "description": null,
                    "createDate": "2023-03-31T03:53:37.516Z",
                    "updateDate": null,
                    "createBy": null,
                    "updateBy": null,
                    "assigneeId": "6c6c3c1a-7eb7-2f36-e871-8b915964532a",
                    "status": 1,
                    "licId": "LIC2023020900001"
                },
                {
                    "seatId": "SET2023033100002",
                    "name": null,
                    "description": null,
                    "createDate": "2023-03-31T04:27:19.054Z",
                    "updateDate": null,
                    "createBy": null,
                    "updateBy": null,
                    "assigneeId": "efe10698-b08e-bf87-1357-9cbe1eda214d",
                    "status": 1,
                    "licId": "LIC2023020900001"
                },
                {
                    "seatId": "SET2023031700001",
                    "name": null,
                    "description": null,
                    "createDate": "2023-03-17T03:50:45.501Z",
                    "updateDate": "2023-03-17T04:08:48.571Z",
                    "createBy": null,
                    "updateBy": null,
                    "assigneeId": "7ca036c3-5ae5-a99f-6803-76980e616d67",
                    "status": 0,
                    "licId": "LIC2023020900001"
                },
                {
                    "seatId": "SET2023031700002",
                    "name": null,
                    "description": null,
                    "createDate": "2023-03-17T04:10:22.828Z",
                    "updateDate": "2023-03-20T01:59:58.630Z",
                    "createBy": null,
                    "updateBy": null,
                    "assigneeId": "3d6e0da7-2f86-c1a5-0f9a-f249a1ff7f85",
                    "status": 0,
                    "licId": "LIC2023020900001"
                },
                {
                    "seatId": "SET2023032000001",
                    "name": null,
                    "description": null,
                    "createDate": "2023-03-20T02:08:57.917Z",
                    "updateDate": "2023-03-20T02:31:10.883Z",
                    "createBy": null,
                    "updateBy": null,
                    "assigneeId": "85abcaa0-0e94-d00e-806e-525e587a39cd",
                    "status": 0,
                    "licId": "LIC2023020900001"
                },
                {
                    "seatId": "SET2023032000002",
                    "name": null,
                    "description": null,
                    "createDate": "2023-03-20T02:32:45.829Z",
                    "updateDate": "2023-03-20T02:54:42.667Z",
                    "createBy": null,
                    "updateBy": null,
                    "assigneeId": "0e29364f-1b67-97ef-e863-d9d52a264117",
                    "status": 0,
                    "licId": "LIC2023020900001"
                },
                {
                    "seatId": "SET2023032000003",
                    "name": null,
                    "description": null,
                    "createDate": "2023-03-20T02:58:28.036Z",
                    "updateDate": "2023-03-20T02:59:16.150Z",
                    "createBy": null,
                    "updateBy": null,
                    "assigneeId": "e6d61fa9-5c6d-09a2-b5b6-5d53641ba698",
                    "status": 0,
                    "licId": "LIC2023020900001"
                },
                {
                    "seatId": "SET2023032000004",
                    "name": null,
                    "description": null,
                    "createDate": "2023-03-20T03:01:12.662Z",
                    "updateDate": "2023-03-20T03:51:12.769Z",
                    "createBy": null,
                    "updateBy": null,
                    "assigneeId": "896e6bba-7724-5c1a-fb03-561fa4f458aa",
                    "status": 0,
                    "licId": "LIC2023020900001"
                },
                {
                    "seatId": "SET2023032000005",
                    "name": null,
                    "description": null,
                    "createDate": "2023-03-20T06:43:19.855Z",
                    "updateDate": "2023-03-20T07:06:41.335Z",
                    "createBy": null,
                    "updateBy": null,
                    "assigneeId": "02486fb8-249e-59d2-97a8-9c246f959538",
                    "status": 0,
                    "licId": "LIC2023020900001"
                },
                {
                    "seatId": "SET2023032000006",
                    "name": null,
                    "description": null,
                    "createDate": "2023-03-20T06:46:03.064Z",
                    "updateDate": "2023-03-20T07:06:43.211Z",
                    "createBy": null,
                    "updateBy": null,
                    "assigneeId": "683478e0-5251-cf2a-a2a5-bdb897bf7f22",
                    "status": 0,
                    "licId": "LIC2023020900001"
                },
                {
                    "seatId": "SET2023032000008",
                    "name": null,
                    "description": null,
                    "createDate": "2023-03-20T07:26:41.276Z",
                    "updateDate": null,
                    "createBy": null,
                    "updateBy": null,
                    "assigneeId": "aedb93d6-1258-1953-f20d-38ec77198d0e",
                    "status": 1,
                    "licId": "LIC2023020900001"
                }
            ]
        },
        {
            "licId": "LIC2023052300001",
            "serial": "V4C0L-QVWHN-8HAQZ-6EMIF-B89CO",
            "name": "Compliance and Telemetry",
            "description": null,
            "maxSeat": 99,
            "detail": null,
            "createDate": "2023-05-23T10:54:53.097Z",
            "updateDate": null,
            "expDate": "2024-01-30T00:00:00.000Z",
            "createBy": "Dev-Wolftail",
            "updateBy": null,
            "ownerId": "AGG2023052300001",
            "status": 1,
            "seats": [
                {
                    "seatId": "SET2023052400001",
                    "name": null,
                    "description": null,
                    "createDate": "2023-05-24T02:18:37.559Z",
                    "updateDate": null,
                    "createBy": null,
                    "updateBy": null,
                    "assigneeId": "0c3ac03a-3575-4d1e-a7af-b9ce33996105",
                    "status": 1,
                    "licId": "LIC2023052300001"
                },
                {
                    "seatId": "SET2023080200001",
                    "name": null,
                    "description": null,
                    "createDate": "2023-08-02T07:30:51.770Z",
                    "updateDate": null,
                    "createBy": null,
                    "updateBy": null,
                    "assigneeId": "6d18aad6-bdb7-4aae-97c3-ce6edd36fc74",
                    "status": 1,
                    "licId": "LIC2023052300001"
                },
                {
                    "seatId": "SET2023083000001",
                    "name": null,
                    "description": null,
                    "createDate": "2023-08-30T06:49:44.796Z",
                    "updateDate": null,
                    "createBy": null,
                    "updateBy": null,
                    "assigneeId": "c08e3b1f-ad09-4c24-ac08-f7b80ef01c32",
                    "status": 1,
                    "licId": "LIC2023052300001"
                }
            ]
        },
        {
            "licId": "LIC2023052500001",
            "serial": "BJ55B-983Q8-QPDM8-R340T-72W3Q",
            "name": "Compliance and Telemetry",
            "description": null,
            "maxSeat": 99,
            "detail": null,
            "createDate": "2023-05-25T03:01:56.399Z",
            "updateDate": null,
            "expDate": "2024-01-31T08:00:00.000Z",
            "createBy": "Tester-Wolftail",
            "updateBy": null,
            "ownerId": "AGG2023052500001",
            "status": 1,
            "seats": [
                {
                    "seatId": "SET2023052500001",
                    "name": null,
                    "description": null,
                    "createDate": "2023-05-25T03:02:52.859Z",
                    "updateDate": null,
                    "createBy": null,
                    "updateBy": null,
                    "assigneeId": "2c79ad8f-a1a0-4ec3-a5f0-7b1e5b844d38",
                    "status": 1,
                    "licId": "LIC2023052500001"
                }
            ]
        },
        {
            "licId": "LIC2023052500002",
            "serial": "7ZHZV-W0E0E-6GXQU-OS624-Y5TB9",
            "name": "Compliance and Telemetry",
            "description": null,
            "maxSeat": 99,
            "detail": null,
            "createDate": "2023-05-25T03:04:45.553Z",
            "updateDate": null,
            "expDate": "2024-01-31T08:00:00.000Z",
            "createBy": "Tester-Wolftail",
            "updateBy": null,
            "ownerId": "AGG2023052500002",
            "status": 1,
            "seats": [
                {
                    "seatId": "SET2023052500002",
                    "name": null,
                    "description": null,
                    "createDate": "2023-05-25T03:06:52.353Z",
                    "updateDate": null,
                    "createBy": null,
                    "updateBy": null,
                    "assigneeId": "7760e7a3-32d6-496d-b5fb-daaf9d8bd81b",
                    "status": 1,
                    "licId": "LIC2023052500002"
                },
                {
                    "seatId": "SET2023080700001",
                    "name": null,
                    "description": null,
                    "createDate": "2023-08-07T03:14:44.971Z",
                    "updateDate": null,
                    "createBy": null,
                    "updateBy": null,
                    "assigneeId": "e926beb7-8d7e-441f-a6fc-9fcc7b76c567",
                    "status": 1,
                    "licId": "LIC2023052500002"
                }
            ]
        },
        {
            "licId": "LIC2023010300001",
            "serial": "4UO4W-O8JGW-4N5M8-9X1Y0-WNVRN",
            "name": "Compliance & Telemetry TLS",
            "description": null,
            "maxSeat": 10,
            "detail": null,
            "createDate": "2023-01-03T02:40:17.571Z",
            "updateDate": "2023-01-31T09:28:51.412Z",
            "expDate": "2023-12-31T00:00:00.000Z",
            "createBy": "Dev",
            "updateBy": null,
            "ownerId": "AGG2023010300001",
            "status": 1,
            "seats": [
                {
                    "seatId": "SET2023011700005",
                    "name": null,
                    "description": null,
                    "createDate": "2023-01-17T08:04:04.378Z",
                    "updateDate": "2023-08-03T01:51:00.886Z",
                    "createBy": null,
                    "updateBy": null,
                    "assigneeId": "15e9caa7-48ad-4d47-8516-6ad70c5ccab3",
                    "status": 0,
                    "licId": "LIC2023010300001"
                }
            ]
        },
        {
            "licId": "LIC2023012400001",
            "serial": "0M65W-HOXSS-WABBK-JK4S7-6X6IC",
            "name": "Compliance and Telemetry",
            "description": null,
            "maxSeat": 10,
            "detail": null,
            "createDate": "2023-01-24T09:35:42.865Z",
            "updateDate": null,
            "expDate": "2023-12-31T08:00:00.000Z",
            "createBy": "PARTTIC-MANAGER-AGENT",
            "updateBy": null,
            "ownerId": "AGG2023012400001",
            "status": 1,
            "seats": [
                {
                    "seatId": "SET2023031700003",
                    "name": null,
                    "description": null,
                    "createDate": "2023-03-17T06:23:26.354Z",
                    "updateDate": "2023-08-03T01:51:20.659Z",
                    "createBy": null,
                    "updateBy": null,
                    "assigneeId": "1a614d7e-0bc0-c6de-fddf-92f7b9a022f0",
                    "status": 0,
                    "licId": "LIC2023012400001"
                },
                {
                    "seatId": "SET2023020200002",
                    "name": null,
                    "description": null,
                    "createDate": "2023-02-02T07:08:14.826Z",
                    "updateDate": "2023-08-03T01:54:14.323Z",
                    "createBy": null,
                    "updateBy": null,
                    "assigneeId": "42df09ad-983f-dd05-476f-e09a5cf7bf45",
                    "status": 0,
                    "licId": "LIC2023012400001"
                },
                {
                    "seatId": "SET2023012500003",
                    "name": null,
                    "description": null,
                    "createDate": "2023-01-25T02:48:45.095Z",
                    "updateDate": null,
                    "createBy": null,
                    "updateBy": null,
                    "assigneeId": "84fb49e9-1cf9-6be1-d387-a32b9be08dcd",
                    "status": 1,
                    "licId": "LIC2023012400001"
                },
                {
                    "seatId": "SET2023020200003",
                    "name": null,
                    "description": null,
                    "createDate": "2023-02-02T07:13:15.804Z",
                    "updateDate": null,
                    "createBy": null,
                    "updateBy": null,
                    "assigneeId": "766018c6-4e97-83a1-67ef-9f3bea5f4cc6",
                    "status": 1,
                    "licId": "LIC2023012400001"
                },
                {
                    "seatId": "SET2023020200004",
                    "name": null,
                    "description": null,
                    "createDate": "2023-02-02T07:17:58.833Z",
                    "updateDate": null,
                    "createBy": null,
                    "updateBy": null,
                    "assigneeId": "c59123d8-922e-26eb-f360-31ebdc03178a",
                    "status": 1,
                    "licId": "LIC2023012400001"
                },
                {
                    "seatId": "SET2023020700001",
                    "name": null,
                    "description": null,
                    "createDate": "2023-02-07T02:15:05.354Z",
                    "updateDate": null,
                    "createBy": null,
                    "updateBy": null,
                    "assigneeId": "a02af75c-2e5d-4bff-667b-e6eddd5a7fb0",
                    "status": 1,
                    "licId": "LIC2023012400001"
                },
                {
                    "seatId": "SET2023031700004",
                    "name": null,
                    "description": null,
                    "createDate": "2023-03-17T07:48:20.201Z",
                    "updateDate": null,
                    "createBy": null,
                    "updateBy": null,
                    "assigneeId": "c124ebcb-5df0-fd61-eb69-1bfbd53b8df7",
                    "status": 1,
                    "licId": "LIC2023012400001"
                },
                {
                    "seatId": "SET2023021400001",
                    "name": null,
                    "description": null,
                    "createDate": "2023-02-14T02:45:21.493Z",
                    "updateDate": null,
                    "createBy": null,
                    "updateBy": null,
                    "assigneeId": "4b57d788-805f-acbc-5dbb-75d60aa9c4ad",
                    "status": 1,
                    "licId": "LIC2023012400001"
                },
                {
                    "seatId": "SET2023031000001",
                    "name": null,
                    "description": null,
                    "createDate": "2023-03-10T08:15:24.279Z",
                    "updateDate": null,
                    "createBy": null,
                    "updateBy": null,
                    "assigneeId": "60277655-c0e0-7b58-0449-264990c5cede",
                    "status": 1,
                    "licId": "LIC2023012400001"
                },
                {
                    "seatId": "SET2023020200001",
                    "name": null,
                    "description": null,
                    "createDate": "2023-02-02T06:34:38.670Z",
                    "updateDate": "2023-03-15T02:09:47.149Z",
                    "createBy": null,
                    "updateBy": null,
                    "assigneeId": "71229f3f-00f7-04f3-87f2-805a496742c5",
                    "status": 0,
                    "licId": "LIC2023012400001"
                }
            ]
        },
        {
            "licId": "LIC2023080800001",
            "serial": "5MHBC-SRWLR-PB69J-LCCIT-7QBEV",
            "name": "Compliance and Telemetry",
            "description": null,
            "maxSeat": 20,
            "detail": null,
            "createDate": "2023-08-08T09:28:33.113Z",
            "updateDate": "2023-08-30T00:00:00.256Z",
            "expDate": "2023-08-30T00:00:00.000Z",
            "createBy": "Dev",
            "updateBy": null,
            "ownerId": "AGG2023080800001",
            "status": 2,
            "seats": []
        },
        {
            "licId": "LIC2023080900004",
            "serial": "BGS4B-R09CF-UQ77P-TSYPG-OM8NT",
            "name": "Sumet Compliance and Telemetry",
            "description": null,
            "maxSeat": 1,
            "detail": null,
            "createDate": "2023-08-09T02:46:14.252Z",
            "updateDate": "2023-08-30T00:00:00.210Z",
            "expDate": "2023-08-30T00:00:00.000Z",
            "createBy": "Dev",
            "updateBy": null,
            "ownerId": "AGG2023080900002",
            "status": 2,
            "seats": []
        },
        {
            "licId": "LIC2023081100003",
            "serial": "6FDD7-HCPU8-AOUYL-0U5DB-QHM21",
            "name": "Sumet",
            "description": "this is description",
            "maxSeat": 60,
            "detail": "detail testing lol hshhs",
            "createDate": "2023-08-11T06:23:40.374Z",
            "updateDate": "2023-08-30T10:01:01.338Z",
            "expDate": "2023-08-30T00:00:00.000Z",
            "createBy": "Dev",
            "updateBy": "postman",
            "ownerId": "AGG2023081100001",
            "status": 2,
            "seats": []
        },
        {
            "licId": "LIC2023080800002",
            "serial": "SGGAQ-UZP3F-8P1IX-7Y2A7-XDWPR",
            "name": "Compliance and Telemetry",
            "description": null,
            "maxSeat": 250,
            "detail": null,
            "createDate": "2023-08-08T09:29:16.964Z",
            "updateDate": "2023-08-30T00:00:00.211Z",
            "expDate": "2023-08-30T00:00:00.000Z",
            "createBy": "Dev",
            "updateBy": null,
            "ownerId": "AGG2023080800002",
            "status": 2,
            "seats": []
        },
        {
            "licId": "LIC2023083000001",
            "serial": "BLRMN-SZSA6-9IWSS-9V1CV-CVQPP",
            "name": "Goh Compliance and Telemetry",
            "description": null,
            "maxSeat": 999,
            "detail": null,
            "createDate": "2023-08-30T09:22:35.339Z",
            "updateDate": null,
            "expDate": "2023-12-30T00:00:00.000Z",
            "createBy": "Dev",
            "updateBy": null,
            "ownerId": "AGG2023083000002",
            "status": 1,
            "seats": []
        },
        {
            "licId": "LIC2023080900002",
            "serial": "FCL53-E7FT3-0ZQN0-EK4WL-QKGCP",
            "name": "Compliance and Telemetry",
            "description": null,
            "maxSeat": 999,
            "detail": null,
            "createDate": "2023-08-09T02:00:39.869Z",
            "updateDate": "2023-08-30T00:00:00.253Z",
            "expDate": "2023-08-30T00:00:00.000Z",
            "createBy": "Dev",
            "updateBy": null,
            "ownerId": "AGG2023080900001",
            "status": 2,
            "seats": []
        },
        {
            "licId": "LIC2023080400002",
            "serial": "7YVBN-IUDF6-JLYY9-CSRNL-QE64S",
            "name": "Compliance and Telemetry",
            "description": null,
            "maxSeat": 20,
            "detail": null,
            "createDate": "2023-08-04T07:16:02.760Z",
            "updateDate": "2023-08-30T00:00:00.210Z",
            "expDate": "2023-08-30T00:00:00.000Z",
            "createBy": "Dev",
            "updateBy": null,
            "ownerId": "AGG2023080400003",
            "status": 2,
            "seats": []
        },
        {
            "licId": "LIC2023010300002",
            "serial": "T8GN2-1URSA-K1W3K-168HI-ARQEL",
            "name": "Compliance & Telemetry",
            "description": null,
            "maxSeat": 10,
            "detail": null,
            "createDate": "2023-01-03T02:57:47.881Z",
            "updateDate": "2023-01-03T03:02:59.001Z",
            "expDate": "2023-01-01T00:00:00.000Z",
            "createBy": "Dev",
            "updateBy": null,
            "ownerId": "AGG2023010300002",
            "status": 2,
            "seats": []
        },
        {
            "licId": "LIC2023080400001",
            "serial": "2B0S6-ES8G1-MCIES-HTGJE-GV6WG",
            "name": "Gohza and Sumet",
            "description": null,
            "maxSeat": 99,
            "detail": null,
            "createDate": "2023-08-04T06:57:18.345Z",
            "updateDate": "2023-08-30T00:00:00.254Z",
            "expDate": "2023-08-30T00:00:00.000Z",
            "createBy": "Dev",
            "updateBy": null,
            "ownerId": "AGG2023080400002",
            "status": 2,
            "seats": []
        }
    ]
}